IP 地址,已发送,已接收,丢包率,平均延迟,下载速度 (MB/s)
104.18.95.245,4,4,0.00,49.83,0.00
104.18.96.67,4,4,0.00,52.63,0.00
141.101.114.11,4,4,0.00,54.94,0.00
104.17.251.217,4,4,0.00,55.57,0.00
104.17.249.42,4,4,0.00,58.30,0.00
104.16.249.98,4,4,0.00,63.23,0.00
104.21.65.205,4,4,0.00,120.33,0.00
104.20.22.121,4,4,0.00,195.66,0.00
104.20.157.121,4,4,0.00,200.09,0.00
104.20.25.2,4,4,0.00,200.48,0.00
